{
  "profiles": {
    "ConsoleApplicationTest": {
      "commandName": "Project",
      "environmentVariables": {
        "DatabaseName": "mydatabase",
        "Credentials:UserId": "yyy",
        "DatabaseName_FILE": "DatabaseName.txt",
        "Credentials:Password_FILE": "./Password.txt"
      }
    }
  }
}